{
	"_type": "export",
	"__export_format": 3,
	"__export_date": "2019-03-03T01:08:02.573Z",
	"__export_source": "insomnia.desktop.app:v6.3.2",
	"resources": [
		{
			"_id": "wrk_3f1a6e36703446be9da58bb3f8417e6c",
			"created": 1549555882369,
			"description": "",
			"modified": 1549555882369,
			"name": "Insomnia",
			"parentId": null,
			"_type": "workspace"
		},
		{
			"_id": "env_4efb103604844bb99e0f81ad25cbb32c",
			"color": null,
			"created": 1549555882393,
			"data": {
				"url": "http://localhost:3333"
			},
			"isPrivate": false,
			"metaSortKey": 1549555882393,
			"modified": 1551505683668,
			"name": "New Environment",
			"parentId": "wrk_3f1a6e36703446be9da58bb3f8417e6c",
			"_type": "environment"
		},
		{
			"_id": "jar_e16feff088824c8099d075bf938c2e93",
			"cookies": [
				{
					"creation": "2019-02-07T16:14:02.690Z",
					"domain": "localhost",
					"expires": "2020-02-06T16:27:29.000Z",
					"hostOnly": true,
					"id": "8870167878185331",
					"key": "csrftoken",
					"lastAccessed": "2019-02-07T16:27:29.951Z",
					"maxAge": 31449600,
					"path": "/",
					"value": "SkJjZFppyenlLEKCaRkQL9fZ997wVq3N3bv0TIuV0FZjT2gdsiG8j1ZW9oENGnqy"
				}
			],
			"created": 1549555882394,
			"modified": 1549556849951,
			"name": "Default Jar",
			"parentId": "wrk_3f1a6e36703446be9da58bb3f8417e6c",
			"_type": "cookie_jar"
		},
		{
			"_id": "fld_b518729541334f5c8f6878e1eefbbe0d",
			"created": 1551505575338,
			"description": "",
			"environment": {},
			"metaSortKey": -1551505575338,
			"modified": 1551505575338,
			"name": "RC",
			"parentId": "wrk_3f1a6e36703446be9da58bb3f8417e6c",
			"_type": "request_group"
		},
		{
			"_id": "env_9b1038389cc94e71b13793f167de97eb",
			"color": null,
			"created": 1551505698908,
			"data": {
				"apiToken": "f8fd326e30cecd00d60ce23a5308d3d45NHfUrHvoVzED8HGS96wo5wEeNRNt5K/ucA5w4EeRrGGM40Yfy07C/Sili4vdtsn",
				"url": "http://localhost:3333"
			},
			"isPrivate": false,
			"metaSortKey": 1551505698908,
			"modified": 1551573792421,
			"name": "New Environment",
			"parentId": "env_4efb103604844bb99e0f81ad25cbb32c",
			"_type": "environment"
		},
		{
			"_id": "fld_78e6b5db78614e4da473d394d9d92729",
			"created": 1551548788250,
			"description": "",
			"environment": {
				"baseUrl": "languages",
				"existingId": "es",
				"newId": "js"
			},
			"metaSortKey": -1551548788250,
			"modified": 1551550568564,
			"name": "language",
			"parentId": "fld_b518729541334f5c8f6878e1eefbbe0d",
			"_type": "request_group"
		},
		{
			"_id": "fld_87a0a9bc6f534b7da630452784b2204f",
			"created": 1551550606972,
			"description": "",
			"environment": {
				"baseUrl": "countries",
				"existingIndex": "VE",
				"newIndex": "JS"
			},
			"metaSortKey": -1551537985022,
			"modified": 1551561879873,
			"name": "countries",
			"parentId": "fld_b518729541334f5c8f6878e1eefbbe0d",
			"_type": "request_group"
		},
		{
			"_id": "fld_aec200940d4a41a88200049353ce96c7",
			"created": 1551554417244,
			"description": "",
			"environment": {
				"baseUrl": "categories",
				"existingIndex": "social:group",
				"newIndex": "JSNOW"
			},
			"metaSortKey": -1551521780180,
			"modified": 1551561991038,
			"name": "categories",
			"parentId": "fld_b518729541334f5c8f6878e1eefbbe0d",
			"_type": "request_group"
		},
		{
			"_id": "fld_7a0737c9c4084570a44e74bbac8218aa",
			"created": 1551556739856,
			"description": "",
			"environment": {
				"baseUrl": "boards",
				"differentIndex": "GOT",
				"existingIndex": "maps:layers",
				"newIndex": "JSNOW"
			},
			"metaSortKey": -1551513677759,
			"modified": 1551558738295,
			"name": "boards",
			"parentId": "fld_b518729541334f5c8f6878e1eefbbe0d",
			"_type": "request_group"
		},
		{
			"_id": "fld_b69a85ed1f7848f88218c6786a0c6585",
			"created": 1551559103100,
			"description": "",
			"environment": {
				"baseUrl": "users",
				"differentIndex": "GOT",
				"existingIndex": "roY",
				"newIndex": "JSNOW"
			},
			"metaSortKey": -1551509626548.5,
			"modified": 1551559212328,
			"name": "users",
			"parentId": "fld_b518729541334f5c8f6878e1eefbbe0d",
			"_type": "request_group"
		},
		{
			"_id": "fld_631c6b58aa3b4ed490bbc169bd604fa4",
			"created": 1551560119028,
			"description": "",
			"environment": {
				"baseUrl": "maps",
				"differentIndex": "GOT",
				"existingIndex": "1OBflIuOmD8wbdkp_NPSQ0rlAkdBV1mgX1zqkWa7L",
				"newIndex": "JSNOW"
			},
			"metaSortKey": -1551507600943.25,
			"modified": 1551560990592,
			"name": "maps",
			"parentId": "fld_b518729541334f5c8f6878e1eefbbe0d",
			"_type": "request_group"
		},
		{
			"_id": "fld_0c2b64a72d6e4737b475c34119d32c72",
			"created": 1551571659124,
			"description": "",
			"environment": {},
			"metaSortKey": -1551571659124,
			"modified": 1551571659124,
			"name": "auth",
			"parentId": "fld_b518729541334f5c8f6878e1eefbbe0d",
			"_type": "request_group"
		},
		{
			"_id": "req_cb0d387f33494da5959fd0c94d31921f",
			"authentication": {},
			"body": {},
			"created": 1551505588215,
			"description": "",
			"headers": [],
			"isPrivate": false,
			"metaSortKey": -1551548738382,
			"method": "DELETE",
			"modified": 1551550472554,
			"name": "Delete",
			"parameters": [],
			"parentId": "fld_78e6b5db78614e4da473d394d9d92729",
			"settingDisableRenderRequestBody": false,
			"settingEncodeUrl": true,
			"settingMaxTimelineDataSize": 1000,
			"settingRebuildPath": true,
			"settingSendCookies": true,
			"settingStoreCookies": true,
			"url": "{{ url  }}/{{ baseUrl  }}/{{ newId  }}",
			"_type": "request"
		},
		{
			"_id": "req_fe8412e3494a424489127eff5dfa2e4b",
			"authentication": {},
			"body": {},
			"created": 1551545500359,
			"description": "",
			"headers": [],
			"isPrivate": false,
			"metaSortKey": -1551548738397.625,
			"method": "GET",
			"modified": 1551550430582,
			"name": "Show",
			"parameters": [],
			"parentId": "fld_78e6b5db78614e4da473d394d9d92729",
			"settingDisableRenderRequestBody": false,
			"settingEncodeUrl": true,
			"settingMaxTimelineDataSize": 1000,
			"settingRebuildPath": true,
			"settingSendCookies": true,
			"settingStoreCookies": true,
			"url": "{{ url  }}/{{ baseUrl  }}/{{ existingId  }}",
			"_type": "request"
		},
		{
			"_id": "req_a789e90af2984a5bb47735fdba808a95",
			"authentication": {
				"token": "{{ apiToken  }}",
				"type": "bearer"
			},
			"body": {},
			"created": 1551547157568,
			"description": "",
			"headers": [
				{
					"id": "pair_73ddb307209045378c832ee70da42f42",
					"name": "",
					"value": "{{ apiToken  }}"
				}
			],
			"isPrivate": false,
			"metaSortKey": -1551548738422.625,
			"method": "GET",
			"modified": 1551573649574,
			"name": "Index",
			"parameters": [],
			"parentId": "fld_78e6b5db78614e4da473d394d9d92729",
			"settingDisableRenderRequestBody": false,
			"settingEncodeUrl": true,
			"settingMaxTimelineDataSize": 1000,
			"settingRebuildPath": true,
			"settingSendCookies": true,
			"settingStoreCookies": true,
			"url": "{{ url  }}/{{ baseUrl  }}",
			"_type": "request"
		},
		{
			"_id": "req_7cfbd2bd72dc4bc9b3f0310f56499180",
			"authentication": {},
			"body": {
				"mimeType": "application/json",
				"text": "{\"code\":\"{{ newId  }}\", \"name\":\"javascript\"}"
			},
			"created": 1551547192174,
			"description": "",
			"headers": [
				{
					"id": "pair_49875b8f8e8c41719b64685a40923138",
					"name": "Content-Type",
					"value": "application/json"
				}
			],
			"isPrivate": false,
			"metaSortKey": -1551548738391.375,
			"method": "POST",
			"modified": 1551550513397,
			"name": "Store",
			"parameters": [],
			"parentId": "fld_78e6b5db78614e4da473d394d9d92729",
			"settingDisableRenderRequestBody": false,
			"settingEncodeUrl": true,
			"settingMaxTimelineDataSize": 1000,
			"settingRebuildPath": true,
			"settingSendCookies": true,
			"settingStoreCookies": true,
			"url": "{{ url  }}/{{ baseUrl  }}",
			"_type": "request"
		},
		{
			"_id": "req_b5dd7ffa871146da84cee856269baed2",
			"authentication": {},
			"body": {
				"mimeType": "application/json",
				"text": "{\"name\":\"jsnow\"}"
			},
			"created": 1551548146657,
			"description": "",
			"headers": [
				{
					"id": "pair_eb4847ef644946b98a5c4dcb5a96e0fe",
					"name": "Content-Type",
					"value": "application/json"
				}
			],
			"isPrivate": false,
			"metaSortKey": -1551548738386.6875,
			"method": "PUT",
			"modified": 1551550532696,
			"name": "Update",
			"parameters": [],
			"parentId": "fld_78e6b5db78614e4da473d394d9d92729",
			"settingDisableRenderRequestBody": false,
			"settingEncodeUrl": true,
			"settingMaxTimelineDataSize": 1000,
			"settingRebuildPath": true,
			"settingSendCookies": true,
			"settingStoreCookies": true,
			"url": "{{ url  }}/{{ baseUrl  }}/{{ newId  }}",
			"_type": "request"
		},
		{
			"_id": "req_dca620eb8f35457d97d0d9990850ac0a",
			"authentication": {},
			"body": {},
			"created": 1551550606974,
			"description": "",
			"headers": [],
			"isPrivate": false,
			"metaSortKey": -1551548738382,
			"method": "DELETE",
			"modified": 1551561945332,
			"name": "Delete",
			"parameters": [],
			"parentId": "fld_87a0a9bc6f534b7da630452784b2204f",
			"settingDisableRenderRequestBody": false,
			"settingEncodeUrl": true,
			"settingMaxTimelineDataSize": 1000,
			"settingRebuildPath": true,
			"settingSendCookies": true,
			"settingStoreCookies": true,
			"url": "{{ url  }}/{{ baseUrl  }}/{{ newIndex  }}",
			"_type": "request"
		},
		{
			"_id": "req_c1b566bce3a443bf94d99b3542a73d5d",
			"authentication": {},
			"body": {},
			"created": 1551550606975,
			"description": "",
			"headers": [],
			"isPrivate": false,
			"metaSortKey": -1551548738397.625,
			"method": "GET",
			"modified": 1551561901230,
			"name": "Show",
			"parameters": [],
			"parentId": "fld_87a0a9bc6f534b7da630452784b2204f",
			"settingDisableRenderRequestBody": false,
			"settingEncodeUrl": true,
			"settingMaxTimelineDataSize": 1000,
			"settingRebuildPath": true,
			"settingSendCookies": true,
			"settingStoreCookies": true,
			"url": "{{ url  }}/{{ baseUrl  }}/{{ existingIndex  }}",
			"_type": "request"
		},
		{
			"_id": "req_acfede79c82d4a5696847ecef57fc569",
			"authentication": {},
			"body": {},
			"created": 1551550606976,
			"description": "",
			"headers": [],
			"isPrivate": false,
			"metaSortKey": -1551548738422.625,
			"method": "GET",
			"modified": 1551550606976,
			"name": "Index",
			"parameters": [],
			"parentId": "fld_87a0a9bc6f534b7da630452784b2204f",
			"settingDisableRenderRequestBody": false,
			"settingEncodeUrl": true,
			"settingMaxTimelineDataSize": 1000,
			"settingRebuildPath": true,
			"settingSendCookies": true,
			"settingStoreCookies": true,
			"url": "{{ url  }}/{{ baseUrl  }}",
			"_type": "request"
		},
		{
			"_id": "req_6ecb74ba8d884fe8ab33430fa69c4fa0",
			"authentication": {},
			"body": {
				"mimeType": "application/json",
				"text": "{\n  \"ISO\": \"{{ newIndex  }}\",\n  \"name\": \"Python\",\n  \"languageId\": \"es\",\n  \"source\": null\n}"
			},
			"created": 1551550606977,
			"description": "",
			"headers": [
				{
					"id": "pair_49875b8f8e8c41719b64685a40923138",
					"name": "Content-Type",
					"value": "application/json"
				}
			],
			"isPrivate": false,
			"metaSortKey": -1551548738391.375,
			"method": "POST",
			"modified": 1551561926983,
			"name": "Store",
			"parameters": [],
			"parentId": "fld_87a0a9bc6f534b7da630452784b2204f",
			"settingDisableRenderRequestBody": false,
			"settingEncodeUrl": true,
			"settingMaxTimelineDataSize": 1000,
			"settingRebuildPath": true,
			"settingSendCookies": true,
			"settingStoreCookies": true,
			"url": "{{ url  }}/{{ baseUrl  }}",
			"_type": "request"
		},
		{
			"_id": "req_df67ad34a01e4cddb377cd69d8cda167",
			"authentication": {},
			"body": {
				"mimeType": "application/json",
				"text": "{\"name\":\"jsnow\"}"
			},
			"created": 1551550606979,
			"description": "",
			"headers": [
				{
					"id": "pair_eb4847ef644946b98a5c4dcb5a96e0fe",
					"name": "Content-Type",
					"value": "application/json"
				}
			],
			"isPrivate": false,
			"metaSortKey": -1551548738386.6875,
			"method": "PUT",
			"modified": 1551561937754,
			"name": "Update",
			"parameters": [],
			"parentId": "fld_87a0a9bc6f534b7da630452784b2204f",
			"settingDisableRenderRequestBody": false,
			"settingEncodeUrl": true,
			"settingMaxTimelineDataSize": 1000,
			"settingRebuildPath": true,
			"settingSendCookies": true,
			"settingStoreCookies": true,
			"url": "{{ url  }}/{{ baseUrl  }}/{{ newIndex  }}",
			"_type": "request"
		},
		{
			"_id": "req_e9e6e0a529cf430fa1d5b752e7550123",
			"authentication": {},
			"body": {},
			"created": 1551554417245,
			"description": "",
			"headers": [],
			"isPrivate": false,
			"metaSortKey": -1551548738382,
			"method": "DELETE",
			"modified": 1551562084308,
			"name": "Delete",
			"parameters": [],
			"parentId": "fld_aec200940d4a41a88200049353ce96c7",
			"settingDisableRenderRequestBody": false,
			"settingEncodeUrl": true,
			"settingMaxTimelineDataSize": 1000,
			"settingRebuildPath": true,
			"settingSendCookies": true,
			"settingStoreCookies": true,
			"url": "{{ url  }}/{{ baseUrl  }}/{{ newIndex  }}",
			"_type": "request"
		},
		{
			"_id": "req_487d45fb161c4396942c4a6d5bea1efd",
			"authentication": {},
			"body": {},
			"created": 1551554417246,
			"description": "",
			"headers": [],
			"isPrivate": false,
			"metaSortKey": -1551548738397.625,
			"method": "GET",
			"modified": 1551562001922,
			"name": "Show",
			"parameters": [],
			"parentId": "fld_aec200940d4a41a88200049353ce96c7",
			"settingDisableRenderRequestBody": false,
			"settingEncodeUrl": true,
			"settingMaxTimelineDataSize": 1000,
			"settingRebuildPath": true,
			"settingSendCookies": true,
			"settingStoreCookies": true,
			"url": "{{ url  }}/{{ baseUrl  }}/{{ existingIndex  }}",
			"_type": "request"
		},
		{
			"_id": "req_0b37e017a8474befbb3f8eb86364fc5b",
			"authentication": {},
			"body": {},
			"created": 1551554417247,
			"description": "",
			"headers": [],
			"isPrivate": false,
			"metaSortKey": -1551548738422.625,
			"method": "GET",
			"modified": 1551554417247,
			"name": "Index",
			"parameters": [],
			"parentId": "fld_aec200940d4a41a88200049353ce96c7",
			"settingDisableRenderRequestBody": false,
			"settingEncodeUrl": true,
			"settingMaxTimelineDataSize": 1000,
			"settingRebuildPath": true,
			"settingSendCookies": true,
			"settingStoreCookies": true,
			"url": "{{ url  }}/{{ baseUrl  }}",
			"_type": "request"
		},
		{
			"_id": "req_c0afe4c643bd4190b989530d40124fcb",
			"authentication": {},
			"body": {
				"mimeType": "application/json",
				"text": "{\n  \"icon\": \"{{ newIndex  }}\"\n}"
			},
			"created": 1551554417248,
			"description": "",
			"headers": [
				{
					"id": "pair_49875b8f8e8c41719b64685a40923138",
					"name": "Content-Type",
					"value": "application/json"
				}
			],
			"isPrivate": false,
			"metaSortKey": -1551548738391.375,
			"method": "POST",
			"modified": 1551562016448,
			"name": "Store",
			"parameters": [],
			"parentId": "fld_aec200940d4a41a88200049353ce96c7",
			"settingDisableRenderRequestBody": false,
			"settingEncodeUrl": true,
			"settingMaxTimelineDataSize": 1000,
			"settingRebuildPath": true,
			"settingSendCookies": true,
			"settingStoreCookies": true,
			"url": "{{ url  }}/{{ baseUrl  }}",
			"_type": "request"
		},
		{
			"_id": "req_5282f60634854041a560989847ee051f",
			"authentication": {},
			"body": {
				"mimeType": "application/json",
				"text": "{\"id\":\"1500\"}"
			},
			"created": 1551554417249,
			"description": "",
			"headers": [
				{
					"id": "pair_eb4847ef644946b98a5c4dcb5a96e0fe",
					"name": "Content-Type",
					"value": "application/json"
				}
			],
			"isPrivate": false,
			"metaSortKey": -1551548738386.6875,
			"method": "PUT",
			"modified": 1551562074525,
			"name": "Update",
			"parameters": [],
			"parentId": "fld_aec200940d4a41a88200049353ce96c7",
			"settingDisableRenderRequestBody": false,
			"settingEncodeUrl": true,
			"settingMaxTimelineDataSize": 1000,
			"settingRebuildPath": true,
			"settingSendCookies": true,
			"settingStoreCookies": true,
			"url": "{{ url  }}/{{ baseUrl  }}/{{ newIndex  }}",
			"_type": "request"
		},
		{
			"_id": "req_93a92d0f20fd4b74bdbb0f7fdc2e2232",
			"authentication": {},
			"body": {},
			"created": 1551556739858,
			"description": "",
			"headers": [],
			"isPrivate": false,
			"metaSortKey": -1551548738382,
			"method": "DELETE",
			"modified": 1551562398796,
			"name": "Delete",
			"parameters": [],
			"parentId": "fld_7a0737c9c4084570a44e74bbac8218aa",
			"settingDisableRenderRequestBody": false,
			"settingEncodeUrl": true,
			"settingMaxTimelineDataSize": 1000,
			"settingRebuildPath": true,
			"settingSendCookies": true,
			"settingStoreCookies": true,
			"url": "{{ url  }}/{{ baseUrl  }}/{{ newIndex  }}",
			"_type": "request"
		},
		{
			"_id": "req_01b4bf252ebb4ca5ae15414c10cd9160",
			"authentication": {},
			"body": {},
			"created": 1551556739859,
			"description": "",
			"headers": [],
			"isPrivate": false,
			"metaSortKey": -1551548738397.625,
			"method": "GET",
			"modified": 1551562266317,
			"name": "Show",
			"parameters": [],
			"parentId": "fld_7a0737c9c4084570a44e74bbac8218aa",
			"settingDisableRenderRequestBody": false,
			"settingEncodeUrl": true,
			"settingMaxTimelineDataSize": 1000,
			"settingRebuildPath": true,
			"settingSendCookies": true,
			"settingStoreCookies": true,
			"url": "{{ url  }}/{{ baseUrl  }}/{{ existingIndex  }}",
			"_type": "request"
		},
		{
			"_id": "req_52e85865e8fa4f53af7047819b7c5d46",
			"authentication": {},
			"body": {},
			"created": 1551556739861,
			"description": "",
			"headers": [],
			"isPrivate": false,
			"metaSortKey": -1551548738422.625,
			"method": "GET",
			"modified": 1551558730316,
			"name": "Index",
			"parameters": [],
			"parentId": "fld_7a0737c9c4084570a44e74bbac8218aa",
			"settingDisableRenderRequestBody": false,
			"settingEncodeUrl": true,
			"settingMaxTimelineDataSize": 1000,
			"settingRebuildPath": true,
			"settingSendCookies": true,
			"settingStoreCookies": true,
			"url": "{{ url  }}/{{ baseUrl  }}",
			"_type": "request"
		},
		{
			"_id": "req_a38e29feb3ef450fb94d3bb80043ab13",
			"authentication": {},
			"body": {
				"mimeType": "application/json",
				"text": "{\n  \"icon\": \"{{ newIndex  }}\",\n\t\"Map_id\": 2,\n\t\"styleId\": 1\n}"
			},
			"created": 1551556739862,
			"description": "",
			"headers": [
				{
					"id": "pair_49875b8f8e8c41719b64685a40923138",
					"name": "Content-Type",
					"value": "application/json"
				}
			],
			"isPrivate": false,
			"metaSortKey": -1551548738391.375,
			"method": "POST",
			"modified": 1551562268625,
			"name": "Store",
			"parameters": [],
			"parentId": "fld_7a0737c9c4084570a44e74bbac8218aa",
			"settingDisableRenderRequestBody": false,
			"settingEncodeUrl": true,
			"settingMaxTimelineDataSize": 1000,
			"settingRebuildPath": true,
			"settingSendCookies": true,
			"settingStoreCookies": true,
			"url": "{{ url  }}/{{ baseUrl  }}",
			"_type": "request"
		},
		{
			"_id": "req_67883f7686494ff3bb69f896f4ebaefd",
			"authentication": {},
			"body": {
				"mimeType": "application/json",
				"text": "{\"direction\":\"ASC\"}"
			},
			"created": 1551556739863,
			"description": "",
			"headers": [
				{
					"id": "pair_eb4847ef644946b98a5c4dcb5a96e0fe",
					"name": "Content-Type",
					"value": "application/json"
				}
			],
			"isPrivate": false,
			"metaSortKey": -1551548738386.6875,
			"method": "PUT",
			"modified": 1551562385227,
			"name": "Update",
			"parameters": [],
			"parentId": "fld_7a0737c9c4084570a44e74bbac8218aa",
			"settingDisableRenderRequestBody": false,
			"settingEncodeUrl": true,
			"settingMaxTimelineDataSize": 1000,
			"settingRebuildPath": true,
			"settingSendCookies": true,
			"settingStoreCookies": true,
			"url": "{{ url  }}/{{ baseUrl  }}/{{ newIndex  }}",
			"_type": "request"
		},
		{
			"_id": "req_d575db9785964815b451315246089ffb",
			"authentication": {},
			"body": {},
			"created": 1551559103102,
			"description": "",
			"headers": [],
			"isPrivate": false,
			"metaSortKey": -1551548738382,
			"method": "DELETE",
			"modified": 1551559646095,
			"name": "Delete",
			"parameters": [],
			"parentId": "fld_b69a85ed1f7848f88218c6786a0c6585",
			"settingDisableRenderRequestBody": false,
			"settingEncodeUrl": true,
			"settingMaxTimelineDataSize": 1000,
			"settingRebuildPath": true,
			"settingSendCookies": true,
			"settingStoreCookies": true,
			"url": "{{ url  }}/{{ baseUrl  }}/{{ newIndex  }}",
			"_type": "request"
		},
		{
			"_id": "req_3189c72b22cc459585f320e8b418c4cc",
			"authentication": {},
			"body": {},
			"created": 1551559103103,
			"description": "",
			"headers": [],
			"isPrivate": false,
			"metaSortKey": -1551548738397.625,
			"method": "GET",
			"modified": 1551559194858,
			"name": "Show",
			"parameters": [],
			"parentId": "fld_b69a85ed1f7848f88218c6786a0c6585",
			"settingDisableRenderRequestBody": false,
			"settingEncodeUrl": true,
			"settingMaxTimelineDataSize": 1000,
			"settingRebuildPath": true,
			"settingSendCookies": true,
			"settingStoreCookies": true,
			"url": "{{ url  }}/{{ baseUrl  }}/{{ existingIndex  }}",
			"_type": "request"
		},
		{
			"_id": "req_391e7ceef30f49839000d869e115a105",
			"authentication": {},
			"body": {},
			"created": 1551559103104,
			"description": "",
			"headers": [],
			"isPrivate": false,
			"metaSortKey": -1551548738422.625,
			"method": "GET",
			"modified": 1551559314496,
			"name": "Index",
			"parameters": [],
			"parentId": "fld_b69a85ed1f7848f88218c6786a0c6585",
			"settingDisableRenderRequestBody": false,
			"settingEncodeUrl": true,
			"settingMaxTimelineDataSize": 1000,
			"settingRebuildPath": true,
			"settingSendCookies": true,
			"settingStoreCookies": true,
			"url": "{{ url  }}/{{ baseUrl  }}",
			"_type": "request"
		},
		{
			"_id": "req_645f87e794af461c958ee30aa60525a2",
			"authentication": {},
			"body": {
				"mimeType": "application/json",
				"text": "{\n\t\"password\": \"jsnow\",\n\t\"username\": \"{{ newIndex  }}\",\n\t\"email\": \"jsnow@gmail.com\"\n}"
			},
			"created": 1551559103107,
			"description": "",
			"headers": [
				{
					"id": "pair_49875b8f8e8c41719b64685a40923138",
					"name": "Content-Type",
					"value": "application/json"
				}
			],
			"isPrivate": false,
			"metaSortKey": -1551548738391.375,
			"method": "POST",
			"modified": 1551559460045,
			"name": "Store",
			"parameters": [],
			"parentId": "fld_b69a85ed1f7848f88218c6786a0c6585",
			"settingDisableRenderRequestBody": false,
			"settingEncodeUrl": true,
			"settingMaxTimelineDataSize": 1000,
			"settingRebuildPath": true,
			"settingSendCookies": true,
			"settingStoreCookies": true,
			"url": "{{ url  }}/{{ baseUrl  }}",
			"_type": "request"
		},
		{
			"_id": "req_84daa8c89e85456098f499a44edd39c3",
			"authentication": {},
			"body": {
				"mimeType": "application/json",
				"text": "{\n\t\"password\": \"GOT\",\n\t\"email\": \"got@gmail.com\"\n}"
			},
			"created": 1551559103108,
			"description": "",
			"headers": [
				{
					"id": "pair_eb4847ef644946b98a5c4dcb5a96e0fe",
					"name": "Content-Type",
					"value": "application/json"
				}
			],
			"isPrivate": false,
			"metaSortKey": -1551548738386.6875,
			"method": "PUT",
			"modified": 1551559666223,
			"name": "Update",
			"parameters": [],
			"parentId": "fld_b69a85ed1f7848f88218c6786a0c6585",
			"settingDisableRenderRequestBody": false,
			"settingEncodeUrl": true,
			"settingMaxTimelineDataSize": 1000,
			"settingRebuildPath": true,
			"settingSendCookies": true,
			"settingStoreCookies": true,
			"url": "{{ url  }}/{{ baseUrl  }}/{{ newIndex  }}",
			"_type": "request"
		},
		{
			"_id": "req_9723b8bf816e42c6a7fa215a94f4c1c2",
			"authentication": {},
			"body": {},
			"created": 1551560119030,
			"description": "",
			"headers": [],
			"isPrivate": false,
			"metaSortKey": -1551548738382,
			"method": "DELETE",
			"modified": 1551560119030,
			"name": "Delete",
			"parameters": [],
			"parentId": "fld_631c6b58aa3b4ed490bbc169bd604fa4",
			"settingDisableRenderRequestBody": false,
			"settingEncodeUrl": true,
			"settingMaxTimelineDataSize": 1000,
			"settingRebuildPath": true,
			"settingSendCookies": true,
			"settingStoreCookies": true,
			"url": "{{ url  }}/{{ baseUrl  }}/{{ newIndex  }}",
			"_type": "request"
		},
		{
			"_id": "req_5554238ffbb848a7b36a147c1bbc4fdb",
			"authentication": {},
			"body": {},
			"created": 1551560119031,
			"description": "",
			"headers": [],
			"isPrivate": false,
			"metaSortKey": -1551548738397.625,
			"method": "GET",
			"modified": 1551560976124,
			"name": "Show",
			"parameters": [],
			"parentId": "fld_631c6b58aa3b4ed490bbc169bd604fa4",
			"settingDisableRenderRequestBody": false,
			"settingEncodeUrl": true,
			"settingMaxTimelineDataSize": 1000,
			"settingRebuildPath": true,
			"settingSendCookies": true,
			"settingStoreCookies": true,
			"url": "{{ url  }}/{{ baseUrl  }}/{{ existingIndex  }}",
			"_type": "request"
		},
		{
			"_id": "req_589c2314dd4f4e5ba582d0296363db6e",
			"authentication": {},
			"body": {},
			"created": 1551560119032,
			"description": "",
			"headers": [],
			"isPrivate": false,
			"metaSortKey": -1551548738422.625,
			"method": "GET",
			"modified": 1551562234439,
			"name": "Index",
			"parameters": [],
			"parentId": "fld_631c6b58aa3b4ed490bbc169bd604fa4",
			"settingDisableRenderRequestBody": false,
			"settingEncodeUrl": true,
			"settingMaxTimelineDataSize": 1000,
			"settingRebuildPath": true,
			"settingSendCookies": true,
			"settingStoreCookies": true,
			"url": "{{ url  }}/{{ baseUrl  }}",
			"_type": "request"
		},
		{
			"_id": "req_abee25dfd0d441b6a92cc019cde8f111",
			"authentication": {},
			"body": {
				"mimeType": "application/json",
				"text": "{\n  \"tableId\": \"{{ newIndex  }}\",\n  \"user_id\": 2\n}"
			},
			"created": 1551560119034,
			"description": "",
			"headers": [
				{
					"id": "pair_49875b8f8e8c41719b64685a40923138",
					"name": "Content-Type",
					"value": "application/json"
				}
			],
			"isPrivate": false,
			"metaSortKey": -1551548738391.375,
			"method": "POST",
			"modified": 1551561204149,
			"name": "Store",
			"parameters": [],
			"parentId": "fld_631c6b58aa3b4ed490bbc169bd604fa4",
			"settingDisableRenderRequestBody": false,
			"settingEncodeUrl": true,
			"settingMaxTimelineDataSize": 1000,
			"settingRebuildPath": true,
			"settingSendCookies": true,
			"settingStoreCookies": true,
			"url": "{{ url  }}/{{ baseUrl  }}",
			"_type": "request"
		},
		{
			"_id": "req_e8eb0db20ab24b87ad529d9dad703e0b",
			"authentication": {},
			"body": {
				"mimeType": "application/json",
				"text": "{\n  \"user_id\": 3\n}"
			},
			"created": 1551560119036,
			"description": "",
			"headers": [
				{
					"id": "pair_eb4847ef644946b98a5c4dcb5a96e0fe",
					"name": "Content-Type",
					"value": "application/json"
				}
			],
			"isPrivate": false,
			"metaSortKey": -1551548738386.6875,
			"method": "PUT",
			"modified": 1551561228737,
			"name": "Update",
			"parameters": [],
			"parentId": "fld_631c6b58aa3b4ed490bbc169bd604fa4",
			"settingDisableRenderRequestBody": false,
			"settingEncodeUrl": true,
			"settingMaxTimelineDataSize": 1000,
			"settingRebuildPath": true,
			"settingSendCookies": true,
			"settingStoreCookies": true,
			"url": "{{ url  }}/{{ baseUrl  }}/{{ newIndex  }}",
			"_type": "request"
		},
		{
			"_id": "req_ef5a8d3f0f2546d1a730bc7ab98c153f",
			"authentication": {},
			"body": {},
			"created": 1551571668373,
			"description": "",
			"headers": [],
			"isPrivate": false,
			"metaSortKey": -1551571668373,
			"method": "GET",
			"modified": 1551571697240,
			"name": "generateToken",
			"parameters": [],
			"parentId": "fld_0c2b64a72d6e4737b475c34119d32c72",
			"settingDisableRenderRequestBody": false,
			"settingEncodeUrl": true,
			"settingMaxTimelineDataSize": 1000,
			"settingRebuildPath": true,
			"settingSendCookies": true,
			"settingStoreCookies": true,
			"url": "{{ url  }}/auth/generateToken/1",
			"_type": "request"
		}
	]
}