{
  "name": "Board",
  "description": "Rank Country Boards!",
  "base": "PersistedModel",
  "idInjection": false,
  "options": {
    "validateUpsert": true
  },
  "properties": {
    "id": {
      "type": "Number",
      "id": true,
      "length": null,
      "precision": 10,
      "scale": 0,
      "mysql": {
        "columnName": "id",
        "dataType": "int",
        "dataLength": null,
        "dataPrecision": 10,
        "dataScale": 0,
        "nullable": "N"
      },
      "_selectable": false
    },
    "mapId": {
      "type": "Number",
      "required": true,
      "length": null,
      "precision": 10,
      "scale": 0,
      "mysql": {
        "columnName": "Map_id",
        "dataType": "int",
        "dataLength": null,
        "dataPrecision": 10,
        "dataScale": 0,
        "nullable": "N"
      },
      "_selectable": false
    },
    "styleid": {
      "type": "Number",
      "required": true,
      "length": null,
      "precision": 10,
      "scale": 0,
      "mysql": {
        "columnName": "styleId",
        "dataType": "int",
        "dataLength": null,
        "dataPrecision": 10,
        "dataScale": 0,
        "nullable": "N"
      },
      "_selectable": false
    },
    "direction": {
      "type": "String",
      "required": false,
      "length": 4,
      "precision": null,
      "scale": null,
      "mysql": {
        "columnName": "direction",
        "dataType": "varchar",
        "dataLength": 4,
        "dataPrecision": null,
        "dataScale": null,
        "nullable": "Y"
      },
      "_selectable": true
    },
    "icon": {
      "type": "String",
      "required": false,
      "length": 512,
      "precision": null,
      "scale": null,
      "mysql": {
        "columnName": "icon",
        "dataType": "varchar",
        "dataLength": 512,
        "dataPrecision": null,
        "dataScale": null,
        "nullable": "Y"
      },
      "_selectable": true
    },
    "createdat": {
      "type": "Date",
      "required": false,
      "length": null,
      "precision": null,
      "scale": null,
      "mysql": {
        "columnName": "createdAt",
        "dataType": "timestamp",
        "dataLength": null,
        "dataPrecision": null,
        "dataScale": null,
        "nullable": "Y"
      },
      "_selectable": true
    }
  },
  "validations": [],
  "relations": {
    "categories": {
      "type": "hasMany",
      "model": "Category",
      "foreignKey": "boardId",
      "through": "BrdCry"
    },
    "brdcries": {
      "type": "hasMany",
      "model": "BrdCry",
      "foreignKey": "boardId"
    },
    "brdcmns": {
      "type": "hasMany",
      "model": "BrdCmn",
      "foreignKey": "boardId"
    },
    "map": {
      "type": "belongsTo",
      "model": "Map",
      "foreignKey": "mapId"
    },
    "columns": {
      "type": "hasMany",
      "model": "Column",
      "foreignKey": "boardId",
      "through": "BrdCmn"
    },
    "brdlges": {
      "type": "hasMany",
      "model": "BrdLge",
      "foreignKey": "boardId"
    }
  },
  "acls": [],
  "methods": {}
}
