{
  "name": "role",
  "description": "Rank Country Roles!",
  "base": "Role",
  "idInjection": true,
  "options": {
    "validateUpsert": true
  },
  "properties": {},
  "validations": [],
  "relations": {
    "members": {
      "type": "hasMany",
      "model": "user",
      "foreignKey": ""
    },
    "principals": {
      "type": "hasMany",
      "model": "RoleMapping",
      "foreignKey": "roleId"
    }
  },
  "acls": [
    {
      "accessType": "EXECUTE",
      "principalType": "ROLE",
      "principalId": "$everyone",
      "permission": "DENY",
      "property": "GoogleLogin"
    },
    {
      "accessType": "EXECUTE",
      "principalType": "ROLE",
      "principalId": "plusTTeam",
      "permission": "ALLOW",
      "property": "GoogleLogin"
    },
    {
      "accessType": "EXECUTE",
      "principalType": "ROLE",
      "principalId": "plusTTeam",
      "permission": "ALLOW",
      "property": "oauth2callback"
    }
  ],
  "methods": {}
}
