{
  "RCdatabase": {
    "host": "104.198.27.88",
    "port": 3306,
    "url": "",
    "database": "rc-prod",
    "password": "+gabriel*Startup!",
    "name": "RCdatabase",
    "user": "RCUser",
    "connector": "mysql",
    "ssl": {
      "ca": "-----BEGIN CERTIFICATE-----\nMIIDITCCAgmgAwIBAgIBADANBgkqhkiG9w0BAQUFADBIMSMwIQYDVQQDExpHb29n\nbGUgQ2xvdWQgU1FMIFNlcnZlciBDQTEUMBIGA1UEChMLR29vZ2xlLCBJbmMxCzAJ\nBgNVBAYTAlVTMB4XDTE4MDUwNzE0NTUwNVoXDTIwMDUwNjE0NTYwNVowSDEjMCEG\nA1UEAxMaR29vZ2xlIENsb3VkIFNRTCBTZXJ2ZXIgQ0ExFDASBgNVBAoTC0dvb2ds\nZSwgSW5jMQswCQYDVQQGEwJVUzCCASIwDQYJKoZIhvcNAQEBBQADggEPADCCAQoC\nggEBAKOxvDbIOpHvuHk9ikREn7l9tsgUI2gIW04IkPexy9IhupeBhq76JFxJ5+lt\nRKPg7ZeIX/ssTeGMHjeQRS67mblvf4Zt46ZxDp7sirz6VBm8+Vqyinlp1Vz24d5j\nRI2MVQvEfiiPvQoibVez9saKHbdDX5UlWWmz1fYTIO9jcRisBK426vBI75nGTJ/W\n+m25TrXxFGsTN99PteMFVgzms51io3fexkJvvsR2e2OXBSS+mExP2M8F02Wk45t5\n3HsCXDtpcMpMQrj03vcdCFaRkBvepEAE8IZp8VvFOgVrVqn6PiIDSxlMYCCwmg0Z\nzOHyQO8mu9+mEC9NO6GfNPrI/k0CAwEAAaMWMBQwEgYDVR0TAQH/BAgwBgEB/wIB\nADANBgkqhkiG9w0BAQUFAAOCAQEAHM1++YTkZIYPoCvhGX6wA81UcaGfCl7C7PDM\nCfPEyf1LSuDHeFzg6c0vH4+RhMUPfr1HyTb9vZyXmHlnmT4mIBJRw/cna2MwSimZ\nBNsm1wY9WRSZPoAqqpzqBc6oecYG6GJ7BGJ+8Iq5UWGLEF7OFQEleLT2fUFCk31h\nxupHSNfQiaIOtydTOWJN0VuHHibtgT19n5QX28uzynBcNK8MiJkTU/K3jSrRafag\n/4BrooXRqJzEo77dlpPV3D0DOQdlHLi4MWNMV3erJVXNSvXJHLOUVhaMMgKWuYys\n/8FMgMPUKpf+v1ZKnx6x7XsfUgvxhU6ayXHc6IWv7bGZuVKOrg==\n-----END CERTIFICATE-----",
      "key": "-----BEGIN RSA PRIVATE KEY-----\nMIIEowIBAAKCAQEAh4LqSzDIfZZ9tdy8MTw/9yjWxAt6gKwzdHg7UHPyYSMlE1VA\nnVIEEDNLcm/39ejUG0GFcfS/Vu65QQmt5iF8VAshagVGEAGOtbUnpCPjq13/5HtP\nm/0vITSXvNMKbajMInLb6hLcq/F2rABiMli5CU7kPXfoH0JEPizQDWjY+0j/0UHB\nTrqlLRiDkiEgFIFwDjo/IivOkHWtlUi1MLPcVgz8c5WHTMO/c7NiOusz0sDkNQsX\nW5kKioasY6YbTgfZzdU7vsF3xykQOMTTSeoOyDHVoL5ff9wKKtYNojCBdbFvlhDz\n84pDIqJQbdux0ZdlD/lwKr+7zQUeIg2SrLmLwwIDAQABAoIBABYY/Bncz6TjKIbC\ngxHIUGn+h98aPBTFf/KLNKju72R1tbMMYOgGmtEFfFUh+x5npEb5jUhC7/y+GwmH\nCYuQhFS0J/PA/mbXyizJaLh0fcjRIExi6111kPzqNaA+DeJJ91fawQ/PmZqUWpS7\nz0eEflANRFzds8V9KeG1rwuwwElhpj23Ua5PuG7CbKUpvag7xSZQRcvaNnX92pzG\nJ65CAcBa2bKMar9hdgZNfRZhgqfI8zrmTlxfFHBiU8MvZFg0h9r3Vk6DrrCiI/tw\nf3LQvN6aNOOn2e8dLZYocUtV6rdadls9q2Nsxli8XdH1ReS0Nta/RADdCS7Q4dEt\n4lVsR+kCgYEAwzelJUqT3swhMiXS0cKQSX8Bt7R/wP8XQdsXFB4yS4HZyErZtyhq\n+hxApWvJE3/rgdczQmTX/vmbpvBXbIbCRAWWz3inDn0yL5kFwYBmUOQG0Mpu9jJt\nLgmXzpfF/OnQCnYlaqOBQYhnuTOP/e4J3rQUHm4I/BKfFeTvhESd2cUCgYEAsbQ8\nTbHDTHayMzn+FlDCDBaBOlD/n0b1iMTVzSNs5JarvZ+dxGjBXqeu1GIgctbU1Tsx\nOSYNp9tlzsY7y0UPHImTHnMjOLnVzkLXBsjdBvGg6Q2sxW6C5JPjTgR4aPfvJtm7\ntVzGZQxzNJmVdi7c2T3tKIhZRytjvcmFW+phj+cCgYEAnOAFlS8WHy9Y6cydWrUI\ncBdhEPg6xaP4U5K1PBR8BFOH6D3GMTqIpQ65IHW6czIT1hZSeeNB9AMwAvoWtv6f\n9DutknH5hVo0Ty2gA3ykPBLSK0zR2IRzWlCZLoqmrvRRm2aP8N8NytTLzXdTGhME\n2XNKy51PGQn5z4VWuKrPUqUCgYAz0G7I5K0iTXW2NBGfJhr+dU1m2JlAMuuC3onM\nj6i/miMnXjQdQcIoPFJgwN/fPD7AkcrPdAYFTJaJzQlAQrmeQ4rvFPlPH/h0dM7H\nvqebz7ZwXbljs85cobZkWC9Xw/sqY9A0mIGMky3AR4vp8s4YVdMhv2fwtXkWrHzD\nCTs7PwKBgEbDwG4KLFKg/ApRqamFKHgVpqNKJ5PD1GKGjnShCPuYjsDpiOo7vdSt\nAFAu1aC0UyWfehrVHGgZvYsA3o9Ga0BE7tayGmmAwiJPJ6QloxLoYy+vQVSGD4L2\nTfkIt/QYlYxPUMFvdHxTynFc3+SqeFDRQ1nlfzCdGXVpxmq1djU5\n-----END RSA PRIVATE KEY-----",
      "cert": "-----BEGIN CERTIFICATE-----\nMIIDGzCCAgOgAwIBAgIEbZkcCTANBgkqhkiG9w0BAQUFADBMMScwJQYDVQQDEx5H\nb29nbGUgQ2xvdWQgU1FMIENsaWVudCBDQSBhcGkxFDASBgNVBAoTC0dvb2dsZSwg\nSW5jMQswCQYDVQQGEwJVUzAeFw0xODA1MDgwMjE0MTNaFw0yMDA1MDcwMjE1MTNa\nMDExDDAKBgNVBAMTA2FwaTEUMBIGA1UEChMLR29vZ2xlLCBJbmMxCzAJBgNVBAYT\nAlVTMIIBIjANBgkqhkiG9w0BAQEFAAOCAQ8AMIIBCgKCAQEAh4LqSzDIfZZ9tdy8\nMTw/9yjWxAt6gKwzdHg7UHPyYSMlE1VAnVIEEDNLcm/39ejUG0GFcfS/Vu65QQmt\n5iF8VAshagVGEAGOtbUnpCPjq13/5HtPm/0vITSXvNMKbajMInLb6hLcq/F2rABi\nMli5CU7kPXfoH0JEPizQDWjY+0j/0UHBTrqlLRiDkiEgFIFwDjo/IivOkHWtlUi1\nMLPcVgz8c5WHTMO/c7NiOusz0sDkNQsXW5kKioasY6YbTgfZzdU7vsF3xykQOMTT\nSeoOyDHVoL5ff9wKKtYNojCBdbFvlhDz84pDIqJQbdux0ZdlD/lwKr+7zQUeIg2S\nrLmLwwIDAQABoyAwHjAcBgNVHREEFTATgRFSb3llZGM0QGdtYWlsLmNvbTANBgkq\nhkiG9w0BAQUFAAOCAQEAIcRizC+gHg/g4IYEXv7CjRPxGIAU2S3+nFJIapBtkruz\nMYcxYKdgQ4DlFL6GsX4sOzAqI53+IwHDSWULJvAkzz/4yCuUsfJZ1EwdyOZhOO9v\n3GUISf5g3YUTXULdJ8ke+GLF2PUwKrzqmmEn1ZaE8XyYUt21L9sJJTTVUloF3WIw\ni6lJOvrrF+JBEpr21iU0p4oCroGNvm6jm1lCLZtBH99R5O5x/1Im6dZN3BTsuNoW\nxUlatJCBt/1mAx9Q5DvMHcMBLP3ptx99YhADCTrdu+++21lMLqNjTg2O7kA9rtDW\nJK8hBSoIEKNKIvWDhsvd9/1HXTBPOgkLUUjsh/bm5g==\n-----END CERTIFICATE-----"
    }
  }
}